<svg width="18" height="18" viewBox="0 0 18 18" fill="none" xmlns="http://www.w3.org/2000/svg">
<g clip-path="url(#clip0)">
<path fill-rule="evenodd" clip-rule="evenodd" d="M8.47266 0V2.67188C7.3093 2.67188 6.36328 3.61789 6.36328 4.78125C6.36328 5.94461 7.3093 6.89062 8.47266 6.89062V8.47266H6.27314C6.10218 8.47266 5.94151 8.55559 5.84262 8.69565C5.74376 8.83519 5.71904 9.01441 5.77568 9.17561C5.81586 9.28839 5.83594 9.40683 5.83594 9.52734C5.83594 10.1088 5.36266 10.582 4.78125 10.582C4.19984 10.582 3.72656 10.1088 3.72656 9.52734C3.72656 9.40683 3.74664 9.28839 3.78678 9.17561C3.84346 9.01441 3.81874 8.83522 3.71985 8.69565C3.62099 8.55555 3.46029 8.47266 3.28932 8.47266H0V1.58203C0 0.709664 0.709664 0 1.58203 0H8.47266ZM9.52734 0H16.418C17.2903 0 18 0.709664 18 1.58203V8.47266H15.3281C15.3281 7.3093 14.3821 6.36328 13.2187 6.36328C12.0554 6.36328 11.1094 7.3093 11.1094 8.47266H9.52734V6.27314C9.52734 6.10218 9.4444 5.94151 9.30434 5.84262C9.16481 5.74323 8.98505 5.71852 8.82439 5.77568C8.16778 6.00796 7.41796 5.48318 7.41796 4.78125C7.41796 4.07932 8.16676 3.55043 8.82439 3.78679C8.98505 3.84293 9.16477 3.81923 9.30434 3.71985C9.44444 3.62099 9.52734 3.46029 9.52734 3.28932V0ZM9.17561 12.2243C9.01389 12.281 8.83519 12.2562 8.69565 12.1574C8.55559 12.0585 8.47266 11.8978 8.47266 11.7269V9.52734H6.89062C6.89062 10.6907 5.94461 11.6367 4.78125 11.6367C3.61789 11.6367 2.67188 10.6907 2.67188 9.52734H0V16.418C0 17.2903 0.709664 18 1.58203 18H8.47266V14.7107C8.47266 14.5397 8.55555 14.379 8.69565 14.2802C8.83522 14.1818 9.01392 14.1571 9.17561 14.2132C9.83169 14.4455 10.582 13.9207 10.582 13.2188C10.582 12.5168 9.83275 11.9895 9.17561 12.2243ZM14.2802 9.30435C14.379 9.44445 14.5397 9.52734 14.7107 9.52734H18V16.418C18 17.2903 17.2903 18 16.418 18H9.52735V15.3281C10.6907 15.3281 11.6367 14.3821 11.6367 13.2188C11.6367 12.0554 10.6907 11.1094 9.52735 11.1094V9.52734H11.7269C11.8978 9.52734 12.0585 9.44441 12.1574 9.30435C12.2562 9.16481 12.281 8.98559 12.2243 8.82439C12.1841 8.71161 12.1641 8.59317 12.1641 8.47266C12.1641 7.89124 12.6373 7.41797 13.2188 7.41797C13.8002 7.41797 14.2734 7.89124 14.2734 8.47266C14.2734 8.59317 14.2534 8.71161 14.2132 8.82439C14.1565 8.98559 14.1813 9.16478 14.2802 9.30435Z" fill="url(#paint0_linear)"/>
</g>
<defs>
<linearGradient id="paint0_linear" x1="18" y1="0" x2="5.72205e-06" y2="18" gradientUnits="userSpaceOnUse">
<stop stop-color="#C19C18"/>
<stop offset="0.53125" stop-color="#FFE381"/>
<stop offset="1" stop-color="#BDA348"/>
</linearGradient>
<clipPath id="clip0">
<rect width="18" height="18" fill="white"/>
</clipPath>
</defs>
</svg>
