<svg width="19" height="18" viewBox="0 0 19 18" fill="none" xmlns="http://www.w3.org/2000/svg">
<path fill-rule="evenodd" clip-rule="evenodd" d="M2.30439 0.562134H13.9764C14.8486 0.562134 15.5584 1.27194 15.5584 2.14417V10.5818C15.5584 11.4543 14.8486 12.1638 13.9764 12.1638H8.01451C7.87424 12.1638 7.74064 12.2193 7.6415 12.3185C6.52063 13.4394 6.14204 13.8179 5.91141 14.0484C5.64478 14.315 5.57588 14.3839 4.78642 15.1736C4.45666 15.5033 3.88642 15.2709 3.88642 14.8005V12.1638H3.56017H2.30439C1.43181 12.1638 0.722351 11.4543 0.722351 10.5818V2.14417C0.722351 1.27194 1.43181 0.562134 2.30439 0.562134ZM10.8123 3.7262H3.35911C3.06766 3.7262 2.83177 3.9621 2.83177 4.25355C2.83177 4.54499 3.06766 4.78089 3.35911 4.78089H10.8123C11.1038 4.78089 11.3397 4.54499 11.3397 4.25355C11.3397 3.9621 11.1038 3.7262 10.8123 3.7262ZM3.35911 8.99972H8.70291C8.99435 8.99972 9.23025 8.76382 9.23025 8.47238C9.23025 8.18093 8.99435 7.94503 8.70291 7.94503H3.35911C3.06766 7.94503 2.83177 8.18093 2.83177 8.47238C2.83177 8.76382 3.06766 8.99972 3.35911 8.99972ZM3.35911 6.89031H12.9217C13.2131 6.89031 13.449 6.65441 13.449 6.36296C13.449 6.07152 13.2131 5.83562 12.9217 5.83562H3.35911C3.06766 5.83562 2.83177 6.07152 2.83177 6.36296C2.83177 6.65441 3.06766 6.89031 3.35911 6.89031ZM16.62 2.67151H17.1403C18.0128 2.67151 18.7224 3.38117 18.7223 4.25358V12.6912C18.7223 13.5635 18.0127 14.2662 17.1403 14.2662H15.5583V16.91C15.5583 17.3814 14.9887 17.6134 14.6581 17.2828L11.6485 14.2662H7.17813L8.30314 13.2185H13.9762C15.4301 13.2185 16.62 12.0356 16.62 10.5818V2.67151Z" fill="url(#paint0_linear)"/>
<defs>
<linearGradient id="paint0_linear" x1="18.7223" y1="0.749999" x2="0.722338" y2="20.625" gradientUnits="userSpaceOnUse">
<stop stop-color="#C19C18"/>
<stop offset="0.53125" stop-color="#FFE381"/>
<stop offset="1" stop-color="#BDA348"/>
</linearGradient>
</defs>
</svg>
